---- EXPERIMENT DETAILS ----
CORPUS: ohsumed
REPRESENTATION: BoC
THRESHOLD: 0.01
CLASSIFY METHOD: mbayes
METRIC: cosine
TFIDF: no
STEMMING: -
SMOOTHING: 0.001
WEIGHTING: milne
#TRAIN: 5
#TEST: all

Obteniendo documents de training y de testing...
--- METODO: get_documents_from_database_boc() ---
0.1
Obteniendo documents de training de una parte del corpus boc_ohsumed
Obteniendo documents de test de todo el corpus boc_ohsumed
