---- EXPERIMENT DETAILS ----
CORPUS: ohsumed_expanded
REPRESENTATION: BoC
THRESHOLD: 0.01
EXPANSION THRESHOLD: 0.8
EXPANSION RELATEDNESS: 0.8
EXPANDED WEIGHTING: 0.1
CLASSIFY METHOD: kneighbors
TFIDF: no
NEIGHBORS: 1
STEMMING: -
SMOOTHING: 0.001
WEIGHTING: milne
#TRAIN: 2
#TEST: all

Obteniendo documents de training y de testing...
--- METODO: get_documents_from_database_boc() ---
0.1
Obteniendo documents de training de una parte del corpus boc_ohsumed_expanded
Obteniendo documents de test de todo el corpus boc_ohsumed_expanded
--- METODO: get_unique_words() ---

----- ALGORITMO KNeighbours ------
Creando Vectores de training...
