---- EXPERIMENT DETAILS ----
CORPUS: ohsumed
REPRESENTATION: BoC
THRESHOLD: 0.01
CLASSIFY METHOD: kneighbors
METRIC: mahalanobis
TFIDF: no
NEIGHBORS: 1
STEMMING: -
SMOOTHING: 0.001
WEIGHTING: milne
#TRAIN: 5
#TEST: 5

Obteniendo documents de training y de testing...
--- METODO: get_documents_from_database_boc() ---
0.1
Obteniendo documents de training de una parte del corpus boc_ohsumed
Obteniendo documents de test de una parte del corpus boc_ohsumed
--- METODO: get_unique_words() ---

----- ALGORITMO KNeighbours ------
Creando Vectores de training...
Entrenando el algoritmo...
