---- EXPERIMENT DETAILS ----
CORPUS: ohsumed
REPRESENTATION: BoW
THRESHOLD: 0.01
CLASSIFY METHOD: kneighbors
METRIC: mahalanobis
TFIDF: no
NEIGHBORS: 10
STEMMING: porter
SMOOTHING: 0.001
WEIGHTING: milne
#TRAIN: -1
#TEST: 1

Obteniendo documents de training y de testing...
--- METODO: get_documents_from_database_bow() ---
Obteniendo documents de training de una parte del corpus bow_ohsumed
Obteniendo documents de test de una parte del corpus bow_ohsumed
--- METODO: get_unique_words_bow() ---

----- ALGORITMO KNeighbours ------
Creando Vectores de training...
Entrenando el algoritmo...
